Lab 2; VHDL Components/Problem #2b Files/reg4n8.vcd
$date
  Sun Apr 10 15:55:53 2022
$end
$version
  GHDL v0
$end
$timescale
  1 fs
$end
$var reg 4 ! d[3:0] $end
$var reg 4 " q[3:0] $end
$var reg 3 # sel[2:0] $end
$var reg 1 $ clk $end
$var reg 1 % enable $end
$scope module reg48 $end
$var reg 1 & clk $end
$var reg 1 ' enable $end
$var reg 3 ( sel[2:0] $end
$var reg 4 ) d[3:0] $end
$var reg 4 * q[3:0] $end
$var reg 8 + enable_vector[7:0] $end
$var reg 32 , output_vector[31:0] $end
$var reg 4 - output_final[3:0] $end
$scope module demux $end
$var reg 1 . enable $end
$var reg 3 / sel[2:0] $end
$var reg 8 0 output_enable[7:0] $end
$upscope $end
$scope module mux $end
$var reg 32 1 input_vector[31:0] $end
$var reg 3 2 sel[2:0] $end
$var reg 4 3 o[3:0] $end
$upscope $end
$scope module reg_1 $end
$var reg 1 4 clk $end
$var reg 1 5 enable $end
$var reg 4 6 d[3:0] $end
$var reg 4 7 q[3:0] $end
$upscope $end
$scope module reg_2 $end
$var reg 1 8 clk $end
$var reg 1 9 enable $end
$var reg 4 : d[3:0] $end
$var reg 4 ; q[3:0] $end
$upscope $end
$scope module reg_3 $end
$var reg 1 < clk $end
$var reg 1 = enable $end
$var reg 4 > d[3:0] $end
$var reg 4 ? q[3:0] $end
$upscope $end
$scope module reg_4 $end
$var reg 1 @ clk $end
$var reg 1 A enable $end
$var reg 4 B d[3:0] $end
$var reg 4 C q[3:0] $end
$upscope $end
$scope module reg_5 $end
$var reg 1 D clk $end
$var reg 1 E enable $end
$var reg 4 F d[3:0] $end
$var reg 4 G q[3:0] $end
$upscope $end
$scope module reg_6 $end
$var reg 1 H clk $end
$var reg 1 I enable $end
$var reg 4 J d[3:0] $end
$var reg 4 K q[3:0] $end
$upscope $end
$scope module reg_7 $end
$var reg 1 L clk $end
$var reg 1 M enable $end
$var reg 4 N d[3:0] $end
$var reg 4 O q[3:0] $end
$upscope $end
$scope module reg_8 $end
$var reg 1 P clk $end
$var reg 1 Q enable $end
$var reg 4 R d[3:0] $end
$var reg 4 S q[3:0] $end
$upscope $end
$upscope $end
$enddefinitions $end
#0
b0001 !
b0000 "
b000 #
1$
1%
1&
1'
b000 (
b0001 )
b0000 *
b00000001 +
b00000000000000000000000000000000 ,
b0000 -
1.
b000 /
b00000001 0
b00000000000000000000000000000000 1
b000 2
b0000 3
14
15
b0001 6
b0000 7
18
09
b0001 :
b0000 ;
1<
0=
b0001 >
b0000 ?
1@
0A
b0001 B
b0000 C
1D
0E
b0001 F
b0000 G
1H
0I
b0001 J
b0000 K
1L
0M
b0001 N
b0000 O
1P
0Q
b0001 R
b0000 S
#5000000
0$
0&
04
08
0<
0@
0D
0H
0L
0P
#10000000
b0001 "
1$
0%
1&
0'
b0001 *
b00000000 +
b00000000000000000000000000000001 ,
b0001 -
0.
b00000000 0
b00000000000000000000000000000001 1
b0001 3
14
05
b0001 7
18
1<
1@
1D
1H
1L
1P
#15000000
b0010 !
b0000 "
b001 #
0$
1%
0&
1'
b001 (
b0010 )
b0000 *
b00000010 +
b0000 -
1.
b001 /
b00000010 0
b001 2
b0000 3
04
b0010 6
08
19
b0010 :
0<
b0010 >
0@
b0010 B
0D
b0010 F
0H
b0010 J
0L
b0010 N
0P
b0010 R
#20000000
b0010 "
1$
0%
1&
0'
b0010 *
b00000000 +
b00000000000000000000000000100001 ,
b0010 -
0.
b00000000 0
b00000000000000000000000000100001 1
b0010 3
14
18
09
b0010 ;
1<
1@
1D
1H
1L
1P
#25000000
b0011 !
b0000 "
b010 #
0$
1%
0&
1'
b010 (
b0011 )
b0000 *
b00000100 +
b0000 -
1.
b010 /
b00000100 0
b010 2
b0000 3
04
b0011 6
08
b0011 :
0<
1=
b0011 >
0@
b0011 B
0D
b0011 F
0H
b0011 J
0L
b0011 N
0P
b0011 R
#30000000
b0011 "
1$
0%
1&
0'
b0011 *
b00000000 +
b00000000000000000000001100100001 ,
b0011 -
0.
b00000000 0
b00000000000000000000001100100001 1
b0011 3
14
18
1<
0=
b0011 ?
1@
1D
1H
1L
1P
#35000000
b0100 !
b0000 "
b011 #
0$
1%
0&
1'
b011 (
b0100 )
b0000 *
b00001000 +
b0000 -
1.
b011 /
b00001000 0
b011 2
b0000 3
04
b0100 6
08
b0100 :
0<
b0100 >
0@
1A
b0100 B
0D
b0100 F
0H
b0100 J
0L
b0100 N
0P
b0100 R
#40000000
b0100 "
1$
0%
1&
0'
b0100 *
b00000000 +
b00000000000000000100001100100001 ,
b0100 -
0.
b00000000 0
b00000000000000000100001100100001 1
b0100 3
14
18
1<
1@
0A
b0100 C
1D
1H
1L
1P
#45000000
b0101 !
b0000 "
b100 #
0$
1%
0&
1'
b100 (
b0101 )
b0000 *
b00010000 +
b0000 -
1.
b100 /
b00010000 0
b100 2
b0000 3
04
b0101 6
08
b0101 :
0<
b0101 >
0@
b0101 B
0D
1E
b0101 F
0H
b0101 J
0L
b0101 N
0P
b0101 R
#50000000
b0101 "
1$
0%
1&
0'
b0101 *
b00000000 +
b00000000000001010100001100100001 ,
b0101 -
0.
b00000000 0
b00000000000001010100001100100001 1
b0101 3
14
18
1<
1@
1D
0E
b0101 G
1H
1L
1P
#55000000
b0110 !
b0000 "
b101 #
0$
1%
0&
1'
b101 (
b0110 )
b0000 *
b00100000 +
b0000 -
1.
b101 /
b00100000 0
b101 2
b0000 3
04
b0110 6
08
b0110 :
0<
b0110 >
0@
b0110 B
0D
b0110 F
0H
1I
b0110 J
0L
b0110 N
0P
b0110 R
#60000000
b0110 "
1$
0%
1&
0'
b0110 *
b00000000 +
b00000000011001010100001100100001 ,
b0110 -
0.
b00000000 0
b00000000011001010100001100100001 1
b0110 3
14
18
1<
1@
1D
1H
0I
b0110 K
1L
1P
#65000000
b0111 !
b0000 "
b110 #
0$
1%
0&
1'
b110 (
b0111 )
b0000 *
b01000000 +
b0000 -
1.
b110 /
b01000000 0
b110 2
b0000 3
04
b0111 6
08
b0111 :
0<
b0111 >
0@
b0111 B
0D
b0111 F
0H
b0111 J
0L
1M
b0111 N
0P
b0111 R
#70000000
b0111 "
1$
0%
1&
0'
b0111 *
b00000000 +
b00000111011001010100001100100001 ,
b0111 -
0.
b00000000 0
b00000111011001010100001100100001 1
b0111 3
14
18
1<
1@
1D
1H
1L
0M
b0111 O
1P
#75000000
b1000 !
b0000 "
b111 #
0$
1%
0&
1'
b111 (
b1000 )
b0000 *
b10000000 +
b0000 -
1.
b111 /
b10000000 0
b111 2
b0000 3
04
b1000 6
08
b1000 :
0<
b1000 >
0@
b1000 B
0D
b1000 F
0H
b1000 J
0L
b1000 N
0P
1Q
b1000 R
#80000000
b1000 "
1$
0%
1&
0'
b1000 *
b00000000 +
b10000111011001010100001100100001 ,
b1000 -
0.
b00000000 0
b10000111011001010100001100100001 1
b1000 3
14
18
1<
1@
1D
1H
1L
1P
0Q
b1000 S
#85000000
b0000 !
b0001 "
b000 #
0$
0&
b000 (
b0000 )
b0001 *
b0001 -
b000 /
b000 2
b0001 3
04
b0000 6
08
b0000 :
0<
b0000 >
0@
b0000 B
0D
b0000 F
0H
b0000 J
0L
b0000 N
0P
b0000 R
#90000000
b0010 "
b001 #
b001 (
b0010 *
b0010 -
b001 /
b001 2
b0010 3
#95000000
b0011 "
b010 #
b010 (
b0011 *
b0011 -
b010 /
b010 2
b0011 3
#100000000
b0100 "
b011 #
b011 (
b0100 *
b0100 -
b011 /
b011 2
b0100 3
#105000000
b0101 "
b100 #
b100 (
b0101 *
b0101 -
b100 /
b100 2
b0101 3
#110000000
b0110 "
b101 #
b101 (
b0110 *
b0110 -
b101 /
b101 2
b0110 3
#115000000
b0111 "
b110 #
b110 (
b0111 *
b0111 -
b110 /
b110 2
b0111 3
#120000000
b1000 "
b111 #
b111 (
b1000 *
b1000 -
b111 /
b111 2
b1000 3
