Lab 4; Single-Cycle Calculator/GHDL/top_level.vcd
$date
  Tue May 24 21:21:09 2022
$end
$version
  GHDL v0
$end
$timescale
  1 fs
$end
$var reg 1 ! clk $end
$var reg 8 " input[7:0] $end
$var reg 8 # output[7:0] $end
$scope module top_levell $end
$var reg 8 $ input[7:0] $end
$var reg 1 % clk $end
$var reg 8 & output[7:0] $end
$var reg 1 ' btn $end
$var reg 8 ( inputt[7:0] $end
$var reg 8 ) outputt[7:0] $end
$scope module calc $end
$var reg 1 * clk $end
$var reg 8 + instruction[7:0] $end
$var reg 8 , print[7:0] $end
$var reg 1 - write_enable $end
$var reg 2 . alu_opcode[1:0] $end
$var reg 1 / print_enable $end
$var reg 8 0 rd11[7:0] $end
$var reg 8 1 rd22[7:0] $end
$var reg 8 2 alu_output[7:0] $end
$var reg 8 3 load_or_alu[7:0] $end
$var reg 8 4 sign_extender[7:0] $end
$scope module mux_2to11 $end
$var reg 8 5 load_int[7:0] $end
$var reg 8 6 alu_output[7:0] $end
$var reg 2 7 sel[1:0] $end
$var reg 8 8 wd[7:0] $end
$upscope $end
$scope module controller1 $end
$var reg 2 9 opcode_input[1:0] $end
$var reg 1 : write_enable $end
$var reg 2 ; alu_opcode[1:0] $end
$var reg 1 < print_enable $end
$upscope $end
$scope module reg8n41 $end
$var reg 1 = clk $end
$var reg 1 > we $end
$var reg 2 ? rs1[1:0] $end
$var reg 2 @ rs2[1:0] $end
$var reg 2 A ws[1:0] $end
$var reg 8 B wd[7:0] $end
$var reg 8 C rd1[7:0] $end
$var reg 8 D rd2[7:0] $end
$var reg 4 E we_vector[3:0] $end
$var reg 32 F output_vector[31:0] $end
$scope module demux $end
$var reg 1 G we $end
$var reg 2 H sel[1:0] $end
$var reg 4 I output_we[3:0] $end
$upscope $end
$scope module mux1 $end
$var reg 32 J input_vector[31:0] $end
$var reg 2 K sel[1:0] $end
$var reg 8 L rd[7:0] $end
$upscope $end
$scope module mux2 $end
$var reg 32 M input_vector[31:0] $end
$var reg 2 N sel[1:0] $end
$var reg 8 O rd[7:0] $end
$upscope $end
$scope module reg_1 $end
$var reg 1 P clk $end
$var reg 1 Q we $end
$var reg 8 R d[7:0] $end
$var reg 8 S q[7:0] $end
$upscope $end
$scope module reg_2 $end
$var reg 1 T clk $end
$var reg 1 U we $end
$var reg 8 V d[7:0] $end
$var reg 8 W q[7:0] $end
$upscope $end
$scope module reg_3 $end
$var reg 1 X clk $end
$var reg 1 Y we $end
$var reg 8 Z d[7:0] $end
$var reg 8 [ q[7:0] $end
$upscope $end
$scope module reg_4 $end
$var reg 1 \ clk $end
$var reg 1 ] we $end
$var reg 8 ^ d[7:0] $end
$var reg 8 _ q[7:0] $end
$upscope $end
$upscope $end
$scope module alu8bit1 $end
$var reg 2 ` opcode[1:0] $end
$var reg 8 a a[7:0] $end
$var reg 8 b b[7:0] $end
$var reg 8 c result[7:0] $end
$var reg 8 d b_twos[7:0] $end
$var reg 9 e carry[8:0] $end
$var reg 8 f final[7:0] $end
$var reg 8 g equal_vector[7:0] $end
$scope module full_adder1 $end
$var reg 1 h a $end
$var reg 1 i b $end
$var reg 1 j carry_in $end
$var reg 1 k sum $end
$var reg 1 l carry_out $end
$upscope $end
$scope module full_adder2 $end
$var reg 1 m a $end
$var reg 1 n b $end
$var reg 1 o carry_in $end
$var reg 1 p sum $end
$var reg 1 q carry_out $end
$upscope $end
$scope module full_adder3 $end
$var reg 1 r a $end
$var reg 1 s b $end
$var reg 1 t carry_in $end
$var reg 1 u sum $end
$var reg 1 v carry_out $end
$upscope $end
$scope module full_adder4 $end
$var reg 1 w a $end
$var reg 1 x b $end
$var reg 1 y carry_in $end
$var reg 1 z sum $end
$var reg 1 { carry_out $end
$upscope $end
$scope module full_adder5 $end
$var reg 1 | a $end
$var reg 1 } b $end
$var reg 1 !" carry_in $end
$var reg 1 "" sum $end
$var reg 1 #" carry_out $end
$upscope $end
$scope module full_adder6 $end
$var reg 1 $" a $end
$var reg 1 %" b $end
$var reg 1 &" carry_in $end
$var reg 1 '" sum $end
$var reg 1 (" carry_out $end
$upscope $end
$scope module full_adder7 $end
$var reg 1 )" a $end
$var reg 1 *" b $end
$var reg 1 +" carry_in $end
$var reg 1 ," sum $end
$var reg 1 -" carry_out $end
$upscope $end
$scope module full_adder8 $end
$var reg 1 ." a $end
$var reg 1 /" b $end
$var reg 1 0" carry_in $end
$var reg 1 1" sum $end
$var reg 1 2" carry_out $end
$upscope $end
$upscope $end
$upscope $end
$upscope $end
$enddefinitions $end
#0
0!
b00000000 "
b00000000 #
b00000000 $
0%
b00000000 &
U'
b00000000 (
b00000000 )
0*
b00000000 +
b00000000 ,
1-
b00 .
0/
b00000000 0
b00000000 1
b00000000 2
b00000000 3
b00000000 4
b00000000 5
b00000000 6
b00 7
b00000000 8
b00 9
1:
b00 ;
0<
0=
1>
b00 ?
b00 @
b00 A
b00000000 B
b00000000 C
b00000000 D
b0001 E
b00000000000000000000000000000000 F
1G
b00 H
b0001 I
b00000000000000000000000000000000 J
b00 K
b00000000 L
b00000000000000000000000000000000 M
b00 N
b00000000 O
0P
1Q
b00000000 R
b00000000 S
0T
0U
b00000000 V
b00000000 W
0X
0Y
b00000000 Z
b00000000 [
0\
0]
b00000000 ^
b00000000 _
b00 `
b00000000 a
b00000000 b
b00000000 c
b00000000 d
b000000000 e
b00000000 f
b00000000 g
0h
0i
0j
0k
0l
0m
0n
0o
0p
0q
0r
0s
0t
0u
0v
0w
0x
0y
0z
0{
0|
0}
0!"
0""
0#"
0$"
0%"
0&"
0'"
0("
0)"
0*"
0+"
0,"
0-"
0."
0/"
00"
01"
02"
#5000000
1!
1%
1*
1=
1P
1T
1X
1\
#10000000
0!
b10000100 "
b10000100 $
0%
b10000100 (
0*
b10000100 +
b11 .
b00000001 3
b00000001 4
b00000001 5
b10 7
b00000001 8
b10 9
b11 ;
0=
b01 @
b00000001 B
b01 N
0P
b00000001 R
0T
b00000001 V
0X
b00000001 Z
0\
b00000001 ^
b11 `
b11111111 d
b111111111 e
b00000000 f
1i
1j
1l
1n
1o
0p
1q
1s
1t
0u
1v
1x
1y
0z
1{
1}
1!"
0""
1#"
1%"
1&"
0'"
1("
1*"
1+"
0,"
1-"
1/"
10"
01"
12"
#15000000
1!
1%
1*
b00000001 0
b00000001 2
b00000001 6
1=
b00000001 C
b00000000000000000000000000000001 F
b00000000000000000000000000000001 J
b00000001 L
b00000000000000000000000000000001 M
1P
b00000001 S
1T
1X
1\
b00000001 a
b00000001 c
b00000001 f
1h
1k
#20000000
0!
b11000000 "
b00000001 #
b11000000 $
0%
b00000001 &
b11000000 (
b00000001 )
0*
b11000000 +
b00000001 ,
0-
1/
b00000001 1
b00000000 4
b00000000 5
b11 7
b11 9
0:
1<
0=
0>
b00 @
b00000001 D
b0000 E
0G
b0000 I
b00 N
b00000001 O
0P
0Q
0T
0X
0\
b00000001 b
b11111110 d
b00000000 f
0i
0k
#25000000
1!
1%
1*
1=
1P
1T
1X
1\
#30000000
0!
b10111101 "
b00000000 #
b10111101 $
0%
b00000000 &
b10111101 (
b00000000 )
0*
b10111101 +
b00000000 ,
1-
0/
b00000000 0
b00000000 1
b00000000 2
b11111111 3
b11111111 4
b11111111 5
b00000000 6
b10 7
b11111111 8
b10 9
1:
0<
0=
1>
b11 ?
b11 @
b01 A
b11111111 B
b00000000 C
b00000000 D
b0010 E
1G
b01 H
b0010 I
b11 K
b00000000 L
b11 N
b00000000 O
0P
b11111111 R
0T
1U
b11111111 V
0X
b11111111 Z
0\
b11111111 ^
b00000000 a
b00000000 b
b00000000 c
b11111111 d
b111111111 e
b00000000 f
0h
1i
0k
1l
1o
0p
1q
1t
0u
1v
1y
0z
1{
1!"
0""
1#"
1&"
0'"
1("
1+"
0,"
1-"
10"
01"
12"
#35000000
1!
1%
1*
1=
b00000000000000001111111100000001 F
b00000000000000001111111100000001 J
b00000000000000001111111100000001 M
1P
1T
b11111111 W
1X
1\
#40000000
0!
b11010000 "
b11111111 #
b11010000 $
0%
b11111111 &
b11010000 (
b11111111 )
0*
b11010000 +
b11111111 ,
0-
1/
b11111111 0
b00000001 1
b11111111 2
b11111111 3
b00000100 4
b00000100 5
b11111111 6
b11 7
b11111111 8
b11 9
0:
1<
0=
0>
b01 ?
b00 @
b00 A
b11111111 B
b11111111 C
b00000001 D
b0000 E
0G
b00 H
b0000 I
b01 K
b11111111 L
b00 N
b00000001 O
0P
0Q
b11111111 R
0T
0U
b11111111 V
0X
b11111111 Z
0\
b11111111 ^
b11111111 a
b00000001 b
b11111111 c
b11111110 d
b11111110 f
1h
0i
0k
1m
1p
1r
1u
1w
1z
1|
1""
1$"
1'"
1)"
1,"
1."
11"
#45000000
1!
1%
1*
1=
1P
1T
1X
1\
#50000000
0!
b00000010 "
b00000000 #
b00000010 $
0%
b00000000 &
b00000010 (
b00000000 )
0*
b00000010 +
b00000000 ,
1-
b00 .
0/
b00000001 0
b00000010 2
b00000010 3
b00000000 4
b00000000 5
b00000010 6
b00 7
b00000010 8
b00 9
1:
b00 ;
0<
0=
1>
b00 ?
b10 A
b00000010 B
b00000001 C
b0100 E
1G
b10 H
b0100 I
b00 K
b00000001 L
0P
b00000010 R
0T
b00000010 V
0X
1Y
b00000010 Z
0\
b00000010 ^
b00 `
b00000001 a
b00000010 c
b00000001 d
b000000010 e
b00000010 f
1i
0j
0m
0n
1p
0q
0r
0s
0t
0u
0v
0w
0x
0y
0z
0{
0|
0}
0!"
0""
0#"
0$"
0%"
0&"
0'"
0("
0)"
0*"
0+"
0,"
0-"
0."
0/"
00"
01"
02"
#55000000
1!
1%
1*
1=
b00000000000000101111111100000001 F
b00000000000000101111111100000001 J
b00000000000000101111111100000001 M
1P
1T
1X
b00000010 [
1\
#60000000
0!
b11100000 "
b00000010 #
b11100000 $
0%
b00000010 &
b11100000 (
b00000010 )
0*
b11100000 +
b00000010 ,
0-
b11 .
1/
b00000010 0
b11111000 4
b11111000 5
b11 7
b11 9
0:
b11 ;
1<
0=
0>
b10 ?
b00 A
b00000010 C
b0000 E
0G
b00 H
b0000 I
b10 K
b00000010 L
0P
0Q
0T
0X
0Y
0\
b11 `
b00000010 a
b11111110 d
b111111101 e
b00000001 f
0h
0i
1j
1k
0l
1m
1n
0o
0p
1q
1s
1t
1v
1x
1y
0z
1{
1}
1!"
0""
1#"
1%"
1&"
0'"
1("
1*"
1+"
0,"
1-"
1/"
10"
01"
12"
#65000000
1!
1%
1*
1=
1P
1T
1X
1\
#70000000
0!
b01100011 "
b00000000 #
b01100011 $
0%
b00000000 &
b01100011 (
b00000000 )
0*
b01100011 +
b00000000 ,
1-
b01 .
0/
b00000001 2
b00000001 3
b00000001 6
b01 7
b00000001 8
b01 9
1:
b01 ;
0<
0=
1>
b11 A
b00000001 B
b1000 E
1G
b11 H
b1000 I
0P
b00000001 R
0T
b00000001 V
0X
b00000001 Z
0\
1]
b00000001 ^
b01 `
b00000001 c
#75000000
1!
1%
1*
1=
b00000001000000101111111100000001 F
b00000001000000101111111100000001 J
b00000001000000101111111100000001 M
1P
1T
1X
1\
b00000001 _
#80000000
0!
b11110000 "
b00000001 #
b11110000 $
0%
b00000001 &
b11110000 (
b00000001 )
0*
b11110000 +
b00000001 ,
0-
b11 .
1/
b00000001 0
b11111100 4
b11111100 5
b11 7
b11 9
0:
b11 ;
1<
0=
0>
b11 ?
b00 A
b00000001 C
b0000 E
0G
b00 H
b0000 I
b11 K
b00000001 L
0P
0Q
0T
0X
0\
0]
b11 `
b00000001 a
b111111111 e
b00000000 f
1h
0k
1l
0m
1o
0p
1q
1t
0u
1v
1y
0z
1{
1!"
0""
1#"
1&"
0'"
1("
1+"
0,"
1-"
10"
01"
12"
#85000000
1!
1%
1*
1=
1P
1T
1X
1\
#90000000
0!
b00010111 "
b00000000 #
b00010111 $
0%
b00000000 &
b00010111 (
b00000000 )
0*
b00010111 +
b00000000 ,
1-
b00 .
0/
b11111111 0
b11111111 1
b11111110 2
b11111110 3
b00000101 4
b00000101 5
b11111110 6
b00 7
b11111110 8
b00 9
1:
b00 ;
0<
0=
1>
b01 ?
b01 @
b11 A
b11111110 B
b11111111 C
b11111111 D
b1000 E
1G
b11 H
b1000 I
b01 K
b11111111 L
b01 N
b11111111 O
0P
b11111110 R
0T
b11111110 V
0X
b11111110 Z
0\
1]
b11111110 ^
b00 `
b11111111 a
b11111111 b
b11111110 c
b11111111 d
b111111110 e
b11111110 f
1i
0j
1m
1p
1r
1u
1w
1z
1|
1""
1$"
1'"
1)"
1,"
1."
11"
#95000000
1!
1%
1*
1=
b11111110000000101111111100000001 F
b11111110000000101111111100000001 J
b11111110000000101111111100000001 M
1P
1T
1X
1\
b11111110 _
#100000000
0!
b11110000 "
b11111110 #
b11110000 $
0%
b11111110 &
b11110000 (
b11111110 )
0*
b11110000 +
b11111110 ,
0-
b11 .
1/
b11111110 0
b00000001 1
b11111100 4
b11111100 5
b11 7
b11 9
0:
b11 ;
1<
0=
0>
b11 ?
b00 @
b00 A
b11111110 C
b00000001 D
b0000 E
0G
b00 H
b0000 I
b11 K
b11111110 L
b00 N
b00000001 O
0P
0Q
0T
0X
0\
0]
b11 `
b11111110 a
b00000001 b
b11111110 d
b111111101 e
b11111101 f
0h
0i
1j
1k
0l
0o
0p
#105000000
1!
1%
1*
1=
1P
1T
1X
1\
#110000000
0!
b01100111 "
b00000000 #
b01100111 $
0%
b00000000 &
b01100111 (
b00000000 )
0*
b01100111 +
b00000000 ,
1-
b01 .
0/
b00000010 0
b11111111 1
b00000011 2
b00000011 3
b11111001 4
b11111001 5
b00000011 6
b01 7
b00000011 8
b01 9
1:
b01 ;
0<
0=
1>
b10 ?
b01 @
b11 A
b00000011 B
b00000010 C
b11111111 D
b1000 E
1G
b11 H
b1000 I
b10 K
b00000010 L
b01 N
b11111111 O
0P
b00000011 R
0T
b00000011 V
0X
b00000011 Z
0\
1]
b00000011 ^
b01 `
b00000010 a
b11111111 b
b00000011 c
b00000000 d
b000000001 e
b00000011 f
0n
1p
0q
0r
0s
0t
0u
0v
0w
0x
0y
0z
0{
0|
0}
0!"
0""
0#"
0$"
0%"
0&"
0'"
0("
0)"
0*"
0+"
0,"
0-"
0."
0/"
00"
01"
02"
#115000000
1!
1%
1*
1=
b00000011000000101111111100000001 F
b00000011000000101111111100000001 J
b00000011000000101111111100000001 M
1P
1T
1X
1\
b00000011 _
#120000000
0!
b11110011 "
b00000011 #
b11110011 $
0%
b00000011 &
b11110011 (
b00000011 )
0*
b11110011 +
b00000011 ,
0-
b11 .
1/
b00000011 0
b00000001 1
b11111100 4
b11111100 5
b11 7
b11 9
0:
b11 ;
1<
0=
0>
b11 ?
b00 @
b00000011 C
b00000001 D
b0000 E
0G
b0000 I
b11 K
b00000011 L
b00 N
b00000001 O
0P
0T
0X
0\
0]
b11 `
b00000011 a
b00000001 b
b11111110 d
b111111111 e
b00000010 f
1h
0k
1l
1n
1o
1q
1s
1t
0u
1v
1x
1y
0z
1{
1}
1!"
0""
1#"
1%"
1&"
0'"
1("
1*"
1+"
0,"
1-"
1/"
10"
01"
12"
#125000000
1!
1%
1*
1=
1P
1T
1X
1\
#130000000
0!
b00000000 "
b00000000 #
b00000000 $
0%
b00000000 &
b00000000 (
b00000000 )
0*
b00000000 +
b00000000 ,
1-
b00 .
0/
b00000001 0
b00000010 2
b00000010 3
b00000000 4
b00000000 5
b00000010 6
b00 7
b00000010 8
b00 9
1:
b00 ;
0<
0=
1>
b00 ?
b00 A
b00000010 B
b00000001 C
b0001 E
1G
b00 H
b0001 I
b00 K
b00000001 L
0P
1Q
b00000010 R
0T
b00000010 V
0X
b00000010 Z
0\
b00000010 ^
b00 `
b00000001 a
b00000010 c
b00000001 d
b000000010 e
b00000010 f
1i
0j
0m
0n
1p
0q
0s
0t
0u
0v
0x
0y
0z
0{
0}
0!"
0""
0#"
0%"
0&"
0'"
0("
0*"
0+"
0,"
0-"
0/"
00"
01"
02"
