Lab 2; VHDL Components/Problem #3 Files/add_sub4.vcd
$date
  Sun Apr 03 15:39:40 2022
$end
$version
  GHDL v0
$end
$timescale
  1 fs
$end
$var reg 1 ! addorsub $end
$var reg 4 " a[3:0] $end
$var reg 4 # b[3:0] $end
$var reg 4 $ result[3:0] $end
$var reg 1 % carry_out $end
$var reg 1 & overflow $end
$var reg 1 ' underflow $end
$scope module addsub4 $end
$var reg 1 ( addorsub $end
$var reg 4 ) a[3:0] $end
$var reg 4 * b[3:0] $end
$var reg 4 + result[3:0] $end
$var reg 1 , carry_out $end
$var reg 1 - overflow $end
$var reg 1 . underflow $end
$var reg 4 / b_twos[3:0] $end
$var reg 5 0 carry[4:0] $end
$scope module full_adder1 $end
$var reg 1 1 a $end
$var reg 1 2 b $end
$var reg 1 3 carry_in $end
$var reg 1 4 sum $end
$var reg 1 5 carry_out $end
$upscope $end
$scope module full_adder2 $end
$var reg 1 6 a $end
$var reg 1 7 b $end
$var reg 1 8 carry_in $end
$var reg 1 9 sum $end
$var reg 1 : carry_out $end
$upscope $end
$scope module full_adder3 $end
$var reg 1 ; a $end
$var reg 1 < b $end
$var reg 1 = carry_in $end
$var reg 1 > sum $end
$var reg 1 ? carry_out $end
$upscope $end
$scope module full_adder4 $end
$var reg 1 @ a $end
$var reg 1 A b $end
$var reg 1 B carry_in $end
$var reg 1 C sum $end
$var reg 1 D carry_out $end
$upscope $end
$upscope $end
$enddefinitions $end
#0
0!
b0000 "
b0000 #
b0000 $
0%
0&
0'
0(
b0000 )
b0000 *
b0000 +
0,
0-
0.
b0000 /
b00000 0
01
02
03
04
05
06
07
08
09
0:
0;
0<
0=
0>
0?
0@
0A
0B
0C
0D
#5000000
b0001 "
b0001 #
b0010 $
b0001 )
b0001 *
b0010 +
b0001 /
b00010 0
11
12
04
15
18
19
#10000000
1!
b0000 $
1%
0&
1(
b0000 +
1,
0-
b1110 /
b11111 0
02
13
17
09
1:
1<
1=
0>
1?
1A
1B
0C
1D
#15000000
0!
b0010 "
b1100 #
b1110 $
0%
0'
0(
b0010 )
b1100 *
b1110 +
0,
0.
b1100 /
b00000 0
01
03
04
05
16
07
08
19
0:
0=
1>
0?
0B
1C
0D
#20000000
b1101 "
b1110 #
b1011 $
1%
b1101 )
b1110 *
b1011 +
1,
b1110 /
b11000 0
11
14
06
17
19
1;
0>
1?
1@
1B
1C
1D
#25000000
1!
b0100 "
b0010 #
b0010 $
1(
b0100 )
b0010 *
b0010 +
b1101 /
b11011 0
01
12
13
04
15
07
18
19
0@
0C
#30000000
0!
b0111 "
b0110 #
b1101 $
0%
1&
0(
b0111 )
b0110 *
b1101 +
0,
1-
b0110 /
b01100 0
11
02
03
14
05
16
17
08
09
1:
1=
1>
0A
1C
0D
#35000000
b1001 "
b1010 #
b0011 $
1%
0&
1'
b1001 )
b1010 *
b0011 +
1,
0-
1.
b1010 /
b10000 0
06
19
0:
0;
0<
0=
0>
0?
1@
1A
0B
0C
1D
#40000000
1!
b0001 "
b1111 #
b0010 $
0%
0'
1(
b0001 )
b1111 *
b0010 +
0,
0.
b0000 /
b00011 0
13
04
15
07
18
19
0@
0A
0C
0D
