Lab 3; Components for Calculator/VHDL Code/Problem 1/reg8n4.vcd
$date
  Tue Apr 26 20:29:26 2022
$end
$version
  GHDL v0
$end
$timescale
  1 fs
$end
$var reg 1 ! clk $end
$var reg 1 " we $end
$var reg 2 # rs1[1:0] $end
$var reg 2 $ rs2[1:0] $end
$var reg 2 % ws[1:0] $end
$var reg 8 & wd[7:0] $end
$var reg 8 ' rd1[7:0] $end
$var reg 8 ( rd2[7:0] $end
$scope module reg84 $end
$var reg 1 ) clk $end
$var reg 1 * we $end
$var reg 2 + rs1[1:0] $end
$var reg 2 , rs2[1:0] $end
$var reg 2 - ws[1:0] $end
$var reg 8 . wd[7:0] $end
$var reg 8 / rd1[7:0] $end
$var reg 8 0 rd2[7:0] $end
$var reg 4 1 we_vector[3:0] $end
$var reg 32 2 output_vector[31:0] $end
$var reg 9 3 output_final[8:0] $end
$scope module demux $end
$var reg 1 4 we $end
$var reg 2 5 sel[1:0] $end
$var reg 4 6 output_we[3:0] $end
$upscope $end
$scope module mux1 $end
$var reg 32 7 input_vector[31:0] $end
$var reg 2 8 sel[1:0] $end
$var reg 8 9 rd[7:0] $end
$upscope $end
$scope module mux2 $end
$var reg 32 : input_vector[31:0] $end
$var reg 2 ; sel[1:0] $end
$var reg 8 < rd[7:0] $end
$upscope $end
$scope module reg_1 $end
$var reg 1 = clk $end
$var reg 1 > we $end
$var reg 8 ? d[7:0] $end
$var reg 8 @ q[7:0] $end
$upscope $end
$scope module reg_2 $end
$var reg 1 A clk $end
$var reg 1 B we $end
$var reg 8 C d[7:0] $end
$var reg 8 D q[7:0] $end
$upscope $end
$scope module reg_3 $end
$var reg 1 E clk $end
$var reg 1 F we $end
$var reg 8 G d[7:0] $end
$var reg 8 H q[7:0] $end
$upscope $end
$scope module reg_4 $end
$var reg 1 I clk $end
$var reg 1 J we $end
$var reg 8 K d[7:0] $end
$var reg 8 L q[7:0] $end
$upscope $end
$upscope $end
$enddefinitions $end
#0
0!
1"
b00 #
b00 $
b00 %
b00000000 &
b00000000 '
b00000000 (
0)
1*
b00 +
b00 ,
b00 -
b00000000 .
b00000000 /
b00000000 0
b0001 1
b00000000000000000000000000000000 2
b000000000 3
14
b00 5
b0001 6
b00000000000000000000000000000000 7
b00 8
b00000000 9
b00000000000000000000000000000000 :
b00 ;
b00000000 <
0=
1>
b00000000 ?
b00000000 @
0A
0B
b00000000 C
b00000000 D
0E
0F
b00000000 G
b00000000 H
0I
0J
b00000000 K
b00000000 L
#5000000
1!
0"
b01 $
b00000001 &
b00000001 '
1)
0*
b01 ,
b00000001 .
b00000001 /
b0000 1
b00000000000000000000000000000001 2
04
b0000 6
b00000000000000000000000000000001 7
b00000001 9
b00000000000000000000000000000001 :
b01 ;
1=
0>
b00000001 ?
b00000001 @
1A
b00000001 C
1E
b00000001 G
1I
b00000001 K
#10000000
0!
1"
b01 %
b00000011 &
0)
1*
b01 -
b00000011 .
b0010 1
14
b01 5
b0010 6
0=
b00000011 ?
0A
1B
b00000011 C
0E
b00000011 G
0I
b00000011 K
#15000000
1!
0"
b00000010 &
b00000010 (
1)
0*
b00000010 .
b00000010 0
b0000 1
b00000000000000000000001000000001 2
04
b0000 6
b00000000000000000000001000000001 7
b00000000000000000000001000000001 :
b00000010 <
1=
b00000010 ?
1A
0B
b00000010 C
b00000010 D
1E
b00000010 G
1I
b00000010 K
#20000000
0!
1"
b01 #
b10 $
b10 %
b00000011 &
b00000010 '
b00000000 (
0)
1*
b01 +
b10 ,
b10 -
b00000011 .
b00000010 /
b00000000 0
b0100 1
14
b10 5
b0100 6
b01 8
b00000010 9
b10 ;
b00000000 <
0=
b00000011 ?
0A
b00000011 C
0E
1F
b00000011 G
0I
b00000011 K
#25000000
1!
0"
b00000011 (
1)
0*
b00000011 0
b0000 1
b00000000000000110000001000000001 2
04
b0000 6
b00000000000000110000001000000001 7
b00000000000000110000001000000001 :
b00000011 <
1=
1A
1E
0F
b00000011 H
1I
#30000000
0!
1"
b10 #
b11 $
b11 %
b00000100 &
b00000011 '
b00000000 (
0)
1*
b10 +
b11 ,
b11 -
b00000100 .
b00000011 /
b00000000 0
b1000 1
14
b11 5
b1000 6
b10 8
b00000011 9
b11 ;
b00000000 <
0=
b00000100 ?
0A
b00000100 C
0E
b00000100 G
0I
1J
b00000100 K
#35000000
1!
0"
b00000100 (
1)
0*
b00000100 0
b0000 1
b00000100000000110000001000000001 2
04
b0000 6
b00000100000000110000001000000001 7
b00000100000000110000001000000001 :
b00000100 <
1=
1A
1E
1I
0J
b00000100 L
#40000000
0!
b00 #
b01 $
b00 %
b00000000 &
b00000001 '
b00000010 (
0)
b00 +
b01 ,
b00 -
b00000000 .
b00000001 /
b00000010 0
b00 5
b00 8
b00000001 9
b01 ;
b00000010 <
0=
b00000000 ?
0A
b00000000 C
0E
b00000000 G
0I
b00000000 K
#45000000
b10 #
b11 $
b00000011 '
b00000100 (
b10 +
b11 ,
b00000011 /
b00000100 0
b10 8
b00000011 9
b11 ;
b00000100 <
